%YAML 1.1
%TAG !u! tag:unity3d.com,2011:
--- !u!128 &12800000
Font:
  m_ObjectHideFlags: 0
  m_CorrespondingSourceObject: {fileID: 0}
  m_PrefabInstance: {fileID: 0}
  m_PrefabAsset: {fileID: 0}
  m_Name: Demonized_se_rep
  serializedVersion: 5
  m_LineSpacing: 16.8
  m_DefaultMaterial: {fileID: 2100000, guid: 9c41045e9d5c66f429dca7a96ab44f5c, type: 2}
  m_FontSize: 14
  m_Texture: {fileID: 2800000, guid: 2d90fd165786d2d459225af79002d1b8, type: 3}
  m_AsciiStartOffset: 0
  m_Tracking: 1
  m_CharacterSpacing: 0
  m_CharacterPadding: 5
  m_ConvertCase: 0
  m_CharacterRects:
  - serializedVersion: 2
    index: 32
    uv:
      serializedVersion: 2
      x: 0
      y: 0
      width: 0.0390625
      height: 0.0390625
    vert:
      serializedVersion: 2
      x: -5
      y: 5
      width: 10
      height: -10
    advance: 5
    flipped: 0
  - serializedVersion: 2
    index: 33
    uv:
      serializedVersion: 2
      x: 0.4765625
      y: 0.125
      width: 0.07421875
      height: 0.0859375
    vert:
      serializedVersion: 2
      x: -5
      y: 17
      width: 19
      height: -22
    advance: 7
    flipped: 0
  - serializedVersion: 2
    index: 34
    uv:
      serializedVersion: 2
      x: 0.890625
      y: 0
      width: 0.07421875
      height: 0.0625
    vert:
      serializedVersion: 2
      x: -2
      y: 17
      width: 19
      height: -16
    advance: 10
    flipped: 0
  - serializedVersion: 2
    index: 35
    uv:
      serializedVersion: 2
      x: 0
      y: 0.046875
      width: 0.08203125
      height: 0.0625
    vert:
      serializedVersion: 2
      x: -5
      y: 17
      width: 21
      height: -16
    advance: 10
    flipped: 0
  - serializedVersion: 2
    index: 36
    uv:
      serializedVersion: 2
      x: 0.6484375
      y: 0.203125
      width: 0.0859375
      height: 0.08203125
    vert:
      serializedVersion: 2
      x: -4
      y: 17
      width: 22
      height: -21
    advance: 11
    flipped: 0
  - serializedVersion: 2
    index: 37
    uv:
      serializedVersion: 2
      x: 0.546875
      y: 0.515625
      width: 0.09765625
      height: 0.0859375
    vert:
      serializedVersion: 2
      x: -3
      y: 17
      width: 25
      height: -22
    advance: 17
    flipped: 0
  - serializedVersion: 2
    index: 38
    uv:
      serializedVersion: 2
      x: 0.546875
      y: 0.125
      width: 0.078125
      height: 0.08203125
    vert:
      serializedVersion: 2
      x: -5
      y: 16
      width: 20
      height: -21
    advance: 10
    flipped: 0
  - serializedVersion: 2
    index: 39
    uv:
      serializedVersion: 2
      x: 0.3671875
      y: 0
      width: 0.05859375
      height: 0.0625
    vert:
      serializedVersion: 2
      x: -2
      y: 17
      width: 15
      height: -16
    advance: 6
    flipped: 0
  - serializedVersion: 2
    index: 40
    uv:
      serializedVersion: 2
      x: 0.6796875
      y: 0.671875
      width: 0.08984375
      height: 0.10546875
    vert:
      serializedVersion: 2
      x: -6
      y: 19
      width: 23
      height: -27
    advance: 10
    flipped: 0
  - serializedVersion: 2
    index: 41
    uv:
      serializedVersion: 2
      x: 0
      y: 0.578125
      width: 0.0859375
      height: 0.10546875
    vert:
      serializedVersion: 2
      x: -6
      y: 19
      width: 22
      height: -27
    advance: 10
    flipped: 0
  - serializedVersion: 2
    index: 42
    uv:
      serializedVersion: 2
      x: 0.15625
      y: 0
      width: 0.0390625
      height: 0.0390625
    vert:
      serializedVersion: 2
      x: -5
      y: 5
      width: 10
      height: -10
    advance: 5
    flipped: 0
  - serializedVersion: 2
    index: 43
    uv:
      serializedVersion: 2
      x: 0.6953125
      y: 0
      width: 0.06640625
      height: 0.0625
    vert:
      serializedVersion: 2
      x: -4
      y: 13
      width: 17
      height: -16
    advance: 7
    flipped: 0
  - serializedVersion: 2
    index: 44
    uv:
      serializedVersion: 2
      x: 0.5625
      y: 0
      width: 0.0625
      height: 0.0625
    vert:
      serializedVersion: 2
      x: -6
      y: 9
      width: 16
      height: -16
    advance: 5
    flipped: 0
  - serializedVersion: 2
    index: 45
    uv:
      serializedVersion: 2
      x: 0.25
      y: 0
      width: 0.06640625
      height: 0.05078125
    vert:
      serializedVersion: 2
      x: -4
      y: 12
      width: 17
      height: -13
    advance: 7
    flipped: 0
  - serializedVersion: 2
    index: 46
    uv:
      serializedVersion: 2
      x: 0.1953125
      y: 0
      width: 0.05859375
      height: 0.0546875
    vert:
      serializedVersion: 2
      x: -5
      y: 9
      width: 15
      height: -14
    advance: 5
    flipped: 0
  - serializedVersion: 2
    index: 47
    uv:
      serializedVersion: 2
      x: 0
      y: 0.1875
      width: 0.078125
      height: 0.0859375
    vert:
      serializedVersion: 2
      x: -5
      y: 17
      width: 20
      height: -22
    advance: 7
    flipped: 0
  - serializedVersion: 2
    index: 48
    uv:
      serializedVersion: 2
      x: 0.3203125
      y: 0.28125
      width: 0.08984375
      height: 0.0859375
    vert:
      serializedVersion: 2
      x: -5
      y: 17
      width: 23
      height: -22
    advance: 13
    flipped: 0
  - serializedVersion: 2
    index: 49
    uv:
      serializedVersion: 2
      x: 0.7890625
      y: 0.140625
      width: 0.078125
      height: 0.0859375
    vert:
      serializedVersion: 2
      x: -5
      y: 17
      width: 20
      height: -22
    advance: 10
    flipped: 0
  - serializedVersion: 2
    index: 50
    uv:
      serializedVersion: 2
      x: 0.265625
      y: 0.375
      width: 0.09375
      height: 0.0859375
    vert:
      serializedVersion: 2
      x: -5
      y: 17
      width: 24
      height: -22
    advance: 12
    flipped: 0
  - serializedVersion: 2
    index: 51
    uv:
      serializedVersion: 2
      x: 0
      y: 0.390625
      width: 0.09375
      height: 0.0859375
    vert:
      serializedVersion: 2
      x: -5
      y: 17
      width: 24
      height: -22
    advance: 12
    flipped: 0
  - serializedVersion: 2
    index: 52
    uv:
      serializedVersion: 2
      x: 0.0859375
      y: 0.296875
      width: 0.08984375
      height: 0.0859375
    vert:
      serializedVersion: 2
      x: -4
      y: 17
      width: 23
      height: -22
    advance: 13
    flipped: 0
  - serializedVersion: 2
    index: 53
    uv:
      serializedVersion: 2
      x: 0.8671875
      y: 0.390625
      width: 0.09375
      height: 0.0859375
    vert:
      serializedVersion: 2
      x: -5
      y: 17
      width: 24
      height: -22
    advance: 11
    flipped: 0
  - serializedVersion: 2
    index: 54
    uv:
      serializedVersion: 2
      x: 0.359375
      y: 0.40625
      width: 0.09375
      height: 0.0859375
    vert:
      serializedVersion: 2
      x: -5
      y: 17
      width: 24
      height: -22
    advance: 12
    flipped: 0
  - serializedVersion: 2
    index: 55
    uv:
      serializedVersion: 2
      x: 0.5078125
      y: 0.265625
      width: 0.0859375
      height: 0.0859375
    vert:
      serializedVersion: 2
      x: -3
      y: 17
      width: 22
      height: -22
    advance: 11
    flipped: 0
  - serializedVersion: 2
    index: 56
    uv:
      serializedVersion: 2
      x: 0.09375
      y: 0.453125
      width: 0.09375
      height: 0.0859375
    vert:
      serializedVersion: 2
      x: -5
      y: 17
      width: 24
      height: -22
    advance: 12
    flipped: 0
  - serializedVersion: 2
    index: 57
    uv:
      serializedVersion: 2
      x: 0.1875
      y: 0.46875
      width: 0.09375
      height: 0.0859375
    vert:
      serializedVersion: 2
      x: -5
      y: 17
      width: 24
      height: -22
    advance: 11
    flipped: 0
  - serializedVersion: 2
    index: 58
    uv:
      serializedVersion: 2
      x: 0.828125
      y: 0
      width: 0.0625
      height: 0.0703125
    vert:
      serializedVersion: 2
      x: -5
      y: 13
      width: 16
      height: -18
    advance: 6
    flipped: 0
  - serializedVersion: 2
    index: 59
    uv:
      serializedVersion: 2
      x: 0.078125
      y: 0.046875
      width: 0.06640625
      height: 0.078125
    vert:
      serializedVersion: 2
      x: -6
      y: 13
      width: 17
      height: -20
    advance: 6
    flipped: 0
  - serializedVersion: 2
    index: 60
    uv:
      serializedVersion: 2
      x: 0.421875
      y: 0.046875
      width: 0.0703125
      height: 0.07421875
    vert:
      serializedVersion: 2
      x: -4
      y: 15
      width: 18
      height: -19
    advance: 10
    flipped: 0
  - serializedVersion: 2
    index: 61
    uv:
      serializedVersion: 2
      x: 0.7578125
      y: 0
      width: 0.0703125
      height: 0.0625
    vert:
      serializedVersion: 2
      x: -5
      y: 13
      width: 18
      height: -16
    advance: 7
    flipped: 0
  - serializedVersion: 2
    index: 62
    uv:
      serializedVersion: 2
      x: 0.890625
      y: 0.0625
      width: 0.07421875
      height: 0.07421875
    vert:
      serializedVersion: 2
      x: -4
      y: 15
      width: 19
      height: -19
    advance: 10
    flipped: 0
  - serializedVersion: 2
    index: 63
    uv:
      serializedVersion: 2
      x: 0.234375
      y: 0.265625
      width: 0.0859375
      height: 0.0859375
    vert:
      serializedVersion: 2
      x: -5
      y: 17
      width: 22
      height: -22
    advance: 10
    flipped: 0
  - serializedVersion: 2
    index: 64
    uv:
      serializedVersion: 2
      x: 0.2421875
      y: 0.1875
      width: 0.08203125
      height: 0.08203125
    vert:
      serializedVersion: 2
      x: -5
      y: 16
      width: 21
      height: -21
    advance: 11
    flipped: 0
  - serializedVersion: 2
    index: 65
    uv:
      serializedVersion: 2
      x: 0.0859375
      y: 0.65625
      width: 0.10546875
      height: 0.0859375
    vert:
      serializedVersion: 2
      x: -7
      y: 17
      width: 27
      height: -22
    advance: 14
    flipped: 0
  - serializedVersion: 2
    index: 66
    uv:
      serializedVersion: 2
      x: 0.7421875
      y: 0.578125
      width: 0.1015625
      height: 0.0859375
    vert:
      serializedVersion: 2
      x: -7
      y: 17
      width: 26
      height: -22
    advance: 12
    flipped: 0
  - serializedVersion: 2
    index: 67
    uv:
      serializedVersion: 2
      x: 0
      y: 0.484375
      width: 0.09375
      height: 0.0859375
    vert:
      serializedVersion: 2
      x: -5
      y: 17
      width: 24
      height: -22
    advance: 12
    flipped: 0
  - serializedVersion: 2
    index: 68
    uv:
      serializedVersion: 2
      x: 0.640625
      y: 0.578125
      width: 0.1015625
      height: 0.0859375
    vert:
      serializedVersion: 2
      x: -7
      y: 17
      width: 26
      height: -22
    advance: 12
    flipped: 0
  - serializedVersion: 2
    index: 69
    uv:
      serializedVersion: 2
      x: 0.09375
      y: 0.5625
      width: 0.1015625
      height: 0.0859375
    vert:
      serializedVersion: 2
      x: -7
      y: 17
      width: 26
      height: -22
    advance: 11
    flipped: 0
  - serializedVersion: 2
    index: 70
    uv:
      serializedVersion: 2
      x: 0.375
      y: 0.546875
      width: 0.1015625
      height: 0.0859375
    vert:
      serializedVersion: 2
      x: -7
      y: 17
      width: 26
      height: -22
    advance: 9
    flipped: 0
  - serializedVersion: 2
    index: 71
    uv:
      serializedVersion: 2
      x: 0.6875
      y: 0.484375
      width: 0.09375
      height: 0.0859375
    vert:
      serializedVersion: 2
      x: -5
      y: 17
      width: 24
      height: -22
    advance: 12
    flipped: 0
  - serializedVersion: 2
    index: 72
    uv:
      serializedVersion: 2
      x: 0.578125
      y: 0.671875
      width: 0.10546875
      height: 0.0859375
    vert:
      serializedVersion: 2
      x: -7
      y: 17
      width: 27
      height: -22
    advance: 13
    flipped: 0
  - serializedVersion: 2
    index: 73
    uv:
      serializedVersion: 2
      x: 0.15625
      y: 0.203125
      width: 0.08203125
      height: 0.0859375
    vert:
      serializedVersion: 2
      x: -7
      y: 17
      width: 21
      height: -22
    advance: 7
    flipped: 0
  - serializedVersion: 2
    index: 74
    uv:
      serializedVersion: 2
      x: 0.78125
      y: 0.484375
      width: 0.09765625
      height: 0.0859375
    vert:
      serializedVersion: 2
      x: -5
      y: 17
      width: 25
      height: -22
    advance: 11
    flipped: 0
  - serializedVersion: 2
    index: 75
    uv:
      serializedVersion: 2
      x: 0.4765625
      y: 0.609375
      width: 0.10546875
      height: 0.0859375
    vert:
      serializedVersion: 2
      x: -7
      y: 17
      width: 27
      height: -22
    advance: 13
    flipped: 0
  - serializedVersion: 2
    index: 76
    uv:
      serializedVersion: 2
      x: 0.90625
      y: 0.296875
      width: 0.08984375
      height: 0.0859375
    vert:
      serializedVersion: 2
      x: -7
      y: 17
      width: 23
      height: -22
    advance: 11
    flipped: 0
  - serializedVersion: 2
    index: 77
    uv:
      serializedVersion: 2
      x: 0.3984375
      y: 0.703125
      width: 0.12109375
      height: 0.0859375
    vert:
      serializedVersion: 2
      x: -7
      y: 17
      width: 31
      height: -22
    advance: 16
    flipped: 0
  - serializedVersion: 2
    index: 78
    uv:
      serializedVersion: 2
      x: 0.8515625
      y: 0.671875
      width: 0.11328125
      height: 0.0859375
    vert:
      serializedVersion: 2
      x: -7
      y: 17
      width: 29
      height: -22
    advance: 13
    flipped: 0
  - serializedVersion: 2
    index: 79
    uv:
      serializedVersion: 2
      x: 0.6796875
      y: 0.328125
      width: 0.09375
      height: 0.0859375
    vert:
      serializedVersion: 2
      x: -5
      y: 17
      width: 24
      height: -22
    advance: 12
    flipped: 0
  - serializedVersion: 2
    index: 80
    uv:
      serializedVersion: 2
      x: 0.1953125
      y: 0.59375
      width: 0.1015625
      height: 0.0859375
    vert:
      serializedVersion: 2
      x: -7
      y: 17
      width: 26
      height: -22
    advance: 12
    flipped: 0
  - serializedVersion: 2
    index: 81
    uv:
      serializedVersion: 2
      x: 0.453125
      y: 0.453125
      width: 0.09375
      height: 0.0859375
    vert:
      serializedVersion: 2
      x: -5
      y: 17
      width: 24
      height: -22
    advance: 13
    flipped: 0
  - serializedVersion: 2
    index: 82
    uv:
      serializedVersion: 2
      x: 0.84375
      y: 0.578125
      width: 0.1015625
      height: 0.0859375
    vert:
      serializedVersion: 2
      x: -7
      y: 17
      width: 26
      height: -22
    advance: 13
    flipped: 0
  - serializedVersion: 2
    index: 83
    uv:
      serializedVersion: 2
      x: 0.59375
      y: 0.421875
      width: 0.09375
      height: 0.0859375
    vert:
      serializedVersion: 2
      x: -5
      y: 17
      width: 24
      height: -22
    advance: 11
    flipped: 0
  - serializedVersion: 2
    index: 84
    uv:
      serializedVersion: 2
      x: 0.875
      y: 0.484375
      width: 0.09765625
      height: 0.0859375
    vert:
      serializedVersion: 2
      x: -5
      y: 17
      width: 25
      height: -22
    advance: 10
    flipped: 0
  - serializedVersion: 2
    index: 85
    uv:
      serializedVersion: 2
      x: 0.28125
      y: 0.5
      width: 0.09765625
      height: 0.0859375
    vert:
      serializedVersion: 2
      x: -5
      y: 17
      width: 25
      height: -22
    advance: 12
    flipped: 0
  - serializedVersion: 2
    index: 86
    uv:
      serializedVersion: 2
      x: 0.7734375
      y: 0.390625
      width: 0.09375
      height: 0.0859375
    vert:
      serializedVersion: 2
      x: -5
      y: 17
      width: 24
      height: -22
    advance: 11
    flipped: 0
  - serializedVersion: 2
    index: 87
    uv:
      serializedVersion: 2
      x: 0.28125
      y: 0.734375
      width: 0.1171875
      height: 0.08984375
    vert:
      serializedVersion: 2
      x: -5
      y: 17
      width: 30
      height: -23
    advance: 17
    flipped: 0
  - serializedVersion: 2
    index: 88
    uv:
      serializedVersion: 2
      x: 0.296875
      y: 0.640625
      width: 0.10546875
      height: 0.0859375
    vert:
      serializedVersion: 2
      x: -7
      y: 17
      width: 27
      height: -22
    advance: 12
    flipped: 0
  - serializedVersion: 2
    index: 89
    uv:
      serializedVersion: 2
      x: 0.5
      y: 0.359375
      width: 0.09375
      height: 0.0859375
    vert:
      serializedVersion: 2
      x: -6
      y: 17
      width: 24
      height: -22
    advance: 9
    flipped: 0
  - serializedVersion: 2
    index: 90
    uv:
      serializedVersion: 2
      x: 0.171875
      y: 0.359375
      width: 0.09375
      height: 0.0859375
    vert:
      serializedVersion: 2
      x: -5
      y: 17
      width: 24
      height: -22
    advance: 11
    flipped: 0
  - serializedVersion: 2
    index: 91
    uv:
      serializedVersion: 2
      x: 0.1875
      y: 0.6875
      width: 0.09375
      height: 0.10546875
    vert:
      serializedVersion: 2
      x: -7
      y: 19
      width: 24
      height: -27
    advance: 10
    flipped: 0
  - serializedVersion: 2
    index: 92
    uv:
      serializedVersion: 2
      x: 0.3359375
      y: 0.125
      width: 0.07421875
      height: 0.0859375
    vert:
      serializedVersion: 2
      x: -4
      y: 17
      width: 19
      height: -22
    advance: 11
    flipped: 0
  - serializedVersion: 2
    index: 93
    uv:
      serializedVersion: 2
      x: 0.765625
      y: 0.671875
      width: 0.08984375
      height: 0.10546875
    vert:
      serializedVersion: 2
      x: -6
      y: 19
      width: 23
      height: -27
    advance: 10
    flipped: 0
  - serializedVersion: 2
    index: 94
    uv:
      serializedVersion: 2
      x: 0.625
      y: 0
      width: 0.07421875
      height: 0.0546875
    vert:
      serializedVersion: 2
      x: -4
      y: 17
      width: 19
      height: -14
    advance: 10
    flipped: 0
  - serializedVersion: 2
    index: 95
    uv:
      serializedVersion: 2
      x: 0.421875
      y: 0
      width: 0.07421875
      height: 0.05078125
    vert:
      serializedVersion: 2
      x: -6
      y: 5
      width: 19
      height: -13
    advance: 7
    flipped: 0
  - serializedVersion: 2
    index: 96
    uv:
      serializedVersion: 2
      x: 0.3125
      y: 0
      width: 0.05859375
      height: 0.05859375
    vert:
      serializedVersion: 2
      x: -2
      y: 21
      width: 15
      height: -15
    advance: 7
    flipped: 0
  - serializedVersion: 2
    index: 97
    uv:
      serializedVersion: 2
      x: 0.140625
      y: 0.0625
      width: 0.08203125
      height: 0.06640625
    vert:
      serializedVersion: 2
      x: -5
      y: 12
      width: 21
      height: -17
    advance: 11
    flipped: 0
  - serializedVersion: 2
    index: 98
    uv:
      serializedVersion: 2
      x: 0.8203125
      y: 0.296875
      width: 0.08984375
      height: 0.0859375
    vert:
      serializedVersion: 2
      x: -7
      y: 17
      width: 23
      height: -22
    advance: 10
    flipped: 0
  - serializedVersion: 2
    index: 99
    uv:
      serializedVersion: 2
      x: 0.21875
      y: 0.0625
      width: 0.08203125
      height: 0.06640625
    vert:
      serializedVersion: 2
      x: -5
      y: 12
      width: 21
      height: -17
    advance: 10
    flipped: 0
  - serializedVersion: 2
    index: 100
    uv:
      serializedVersion: 2
      x: 0.59375
      y: 0.28125
      width: 0.08984375
      height: 0.0859375
    vert:
      serializedVersion: 2
      x: -5
      y: 17
      width: 23
      height: -22
    advance: 11
    flipped: 0
  - serializedVersion: 2
    index: 101
    uv:
      serializedVersion: 2
      x: 0.296875
      y: 0.0625
      width: 0.08203125
      height: 0.06640625
    vert:
      serializedVersion: 2
      x: -5
      y: 12
      width: 21
      height: -17
    advance: 10
    flipped: 0
  - serializedVersion: 2
    index: 102
    uv:
      serializedVersion: 2
      x: 0.734375
      y: 0.234375
      width: 0.0859375
      height: 0.0859375
    vert:
      serializedVersion: 2
      x: -7
      y: 17
      width: 22
      height: -22
    advance: 7
    flipped: 0
  - serializedVersion: 2
    index: 103
    uv:
      serializedVersion: 2
      x: 0.703125
      y: 0.125
      width: 0.0859375
      height: 0.078125
    vert:
      serializedVersion: 2
      x: -6
      y: 12
      width: 22
      height: -20
    advance: 10
    flipped: 0
  - serializedVersion: 2
    index: 104
    uv:
      serializedVersion: 2
      x: 0
      y: 0.28125
      width: 0.08984375
      height: 0.0859375
    vert:
      serializedVersion: 2
      x: -7
      y: 17
      width: 23
      height: -22
    advance: 11
    flipped: 0
  - serializedVersion: 2
    index: 105
    uv:
      serializedVersion: 2
      x: 0.171875
      y: 0.125
      width: 0.07421875
      height: 0.08203125
    vert:
      serializedVersion: 2
      x: -7
      y: 16
      width: 19
      height: -21
    advance: 6
    flipped: 0
  - serializedVersion: 2
    index: 106
    uv:
      serializedVersion: 2
      x: 0.4296875
      y: 0.21875
      width: 0.078125
      height: 0.09375
    vert:
      serializedVersion: 2
      x: -8
      y: 16
      width: 20
      height: -24
    advance: 5
    flipped: 0
  - serializedVersion: 2
    index: 107
    uv:
      serializedVersion: 2
      x: 0.40625
      y: 0.3125
      width: 0.09375
      height: 0.0859375
    vert:
      serializedVersion: 2
      x: -7
      y: 17
      width: 24
      height: -22
    advance: 11
    flipped: 0
  - serializedVersion: 2
    index: 108
    uv:
      serializedVersion: 2
      x: 0.078125
      y: 0.1875
      width: 0.078125
      height: 0.0859375
    vert:
      serializedVersion: 2
      x: -7
      y: 17
      width: 20
      height: -22
    advance: 6
    flipped: 0
  - serializedVersion: 2
    index: 109
    uv:
      serializedVersion: 2
      x: 0.3203125
      y: 0.21875
      width: 0.109375
      height: 0.06640625
    vert:
      serializedVersion: 2
      x: -7
      y: 12
      width: 28
      height: -17
    advance: 16
    flipped: 0
  - serializedVersion: 2
    index: 110
    uv:
      serializedVersion: 2
      x: 0
      y: 0.125
      width: 0.08984375
      height: 0.06640625
    vert:
      serializedVersion: 2
      x: -7
      y: 12
      width: 23
      height: -17
    advance: 11
    flipped: 0
  - serializedVersion: 2
    index: 111
    uv:
      serializedVersion: 2
      x: 0.4921875
      y: 0.0625
      width: 0.08203125
      height: 0.06640625
    vert:
      serializedVersion: 2
      x: -5
      y: 12
      width: 21
      height: -17
    advance: 10
    flipped: 0
  - serializedVersion: 2
    index: 112
    uv:
      serializedVersion: 2
      x: 0.8671875
      y: 0.21875
      width: 0.09375
      height: 0.078125
    vert:
      serializedVersion: 2
      x: -8
      y: 12
      width: 24
      height: -20
    advance: 10
    flipped: 0
  - serializedVersion: 2
    index: 113
    uv:
      serializedVersion: 2
      x: 0.625
      y: 0.125
      width: 0.08203125
      height: 0.078125
    vert:
      serializedVersion: 2
      x: -5
      y: 12
      width: 21
      height: -20
    advance: 10
    flipped: 0
  - serializedVersion: 2
    index: 114
    uv:
      serializedVersion: 2
      x: 0.0859375
      y: 0.125
      width: 0.08984375
      height: 0.06640625
    vert:
      serializedVersion: 2
      x: -7
      y: 12
      width: 23
      height: -17
    advance: 10
    flipped: 0
  - serializedVersion: 2
    index: 115
    uv:
      serializedVersion: 2
      x: 0.6484375
      y: 0.0625
      width: 0.08203125
      height: 0.06640625
    vert:
      serializedVersion: 2
      x: -5
      y: 12
      width: 21
      height: -17
    advance: 10
    flipped: 0
  - serializedVersion: 2
    index: 116
    uv:
      serializedVersion: 2
      x: 0.40625
      y: 0.125
      width: 0.07421875
      height: 0.0859375
    vert:
      serializedVersion: 2
      x: -5
      y: 17
      width: 19
      height: -22
    advance: 7
    flipped: 0
  - serializedVersion: 2
    index: 117
    uv:
      serializedVersion: 2
      x: 0.5703125
      y: 0.0625
      width: 0.08203125
      height: 0.06640625
    vert:
      serializedVersion: 2
      x: -5
      y: 12
      width: 21
      height: -17
    advance: 11
    flipped: 0
  - serializedVersion: 2
    index: 118
    uv:
      serializedVersion: 2
      x: 0.7265625
      y: 0.0625
      width: 0.08203125
      height: 0.06640625
    vert:
      serializedVersion: 2
      x: -5
      y: 12
      width: 21
      height: -17
    advance: 9
    flipped: 0
  - serializedVersion: 2
    index: 119
    uv:
      serializedVersion: 2
      x: 0.546875
      y: 0.203125
      width: 0.10546875
      height: 0.06640625
    vert:
      serializedVersion: 2
      x: -5
      y: 12
      width: 27
      height: -17
    advance: 16
    flipped: 0
  - serializedVersion: 2
    index: 120
    uv:
      serializedVersion: 2
      x: 0.2421875
      y: 0.125
      width: 0.09375
      height: 0.06640625
    vert:
      serializedVersion: 2
      x: -7
      y: 12
      width: 24
      height: -17
    advance: 11
    flipped: 0
  - serializedVersion: 2
    index: 121
    uv:
      serializedVersion: 2
      x: 0.8671875
      y: 0.140625
      width: 0.0859375
      height: 0.078125
    vert:
      serializedVersion: 2
      x: -6
      y: 12
      width: 22
      height: -20
    advance: 9
    flipped: 0
  - serializedVersion: 2
    index: 122
    uv:
      serializedVersion: 2
      x: 0.8046875
      y: 0.078125
      width: 0.0859375
      height: 0.06640625
    vert:
      serializedVersion: 2
      x: -5
      y: 12
      width: 22
      height: -17
    advance: 11
    flipped: 0
  - serializedVersion: 2
    index: 123
    uv:
      serializedVersion: 2
      x: 0.078125
      y: 0
      width: 0.0390625
      height: 0.0390625
    vert:
      serializedVersion: 2
      x: -5
      y: 5
      width: 10
      height: -10
    advance: 5
    flipped: 0
  - serializedVersion: 2
    index: 124
    uv:
      serializedVersion: 2
      x: 0.0390625
      y: 0
      width: 0.0390625
      height: 0.0390625
    vert:
      serializedVersion: 2
      x: -5
      y: 5
      width: 10
      height: -10
    advance: 5
    flipped: 0
  - serializedVersion: 2
    index: 125
    uv:
      serializedVersion: 2
      x: 0.1171875
      y: 0
      width: 0.0390625
      height: 0.0390625
    vert:
      serializedVersion: 2
      x: -5
      y: 5
      width: 10
      height: -10
    advance: 5
    flipped: 0
  - serializedVersion: 2
    index: 126
    uv:
      serializedVersion: 2
      x: 0.4921875
      y: 0
      width: 0.0703125
      height: 0.0546875
    vert:
      serializedVersion: 2
      x: -3
      y: 15
      width: 18
      height: -14
    advance: 10
    flipped: 0
  m_KerningValues: []
  m_PixelScale: 0.1
  m_FontData: 
  m_Ascent: 14
  m_Descent: -2.8000002
  m_DefaultStyle: 0
  m_FontNames:
  - Demonized
  m_FallbackFonts: []
  m_FontRenderingMode: 0
  m_UseLegacyBoundsCalculation: 0
  m_ShouldRoundAdvanceValue: 1
